{
  "project_info": {
    "project_number": "966404196566",
    "firebase_url": "https://memenoirx.firebaseio.com",
    "project_id": "memenoirx",
    "storage_bucket": "memenoirx.appspot.com"
  },
  "client": [
    {
      "client_info": {
        "mobilesdk_app_id": "1:966404196566:android:aee6c90b61856371",
        "android_client_info": {
          "package_name": "com.nerve.memenoir"
        }
      },
      "oauth_client": [
        {
          "client_id": "966404196566-73ecomomb7pq2lse61r4stjtpmk97ob5.apps.googleusercontent.com",
          "client_type": 3
        }
      ],
      "api_key": [
        {
          "current_key": "AIzaSyAH3FpZ4SC3TYTA8TX06ZTO_sfyLSbf6HU"
        }
      ],
      "services": {
        "analytics_service": {
          "status": 1
        },
        "appinvite_service": {
          "status": 1,
          "other_platform_oauth_client": []
        },
        "ads_service": {
          "status": 2
        }
      }
    }
  ],
  "configuration_version": "1"
}